{
  "id": 12345678,
  "iid": 1234,
  "project_id": 278964,
  "title": "Draft: Update CI image to Ruby 3.1",
  "description": "xxx",
  "state": "open",
  "created_at": "2023-03-12T01:06:36.452Z",
  "updated_at": "2024-02-09T00:53:13.025Z",
  "merged_by": null,
  "merge_user": null,
  "merged_at": null,
  "closed_by": {},
  "closed_at": null,
  "target_branch": "master",
  "source_branch": "sh-test-ruby-3.1",
  "user_notes_count": 1,
  "upvotes": 1,
  "downvotes": 0,
  "author": {},
  "assignees": [],
  "assignee": {},
  "reviewers": [],
  "source_project_id": 278964,
  "target_project_id": 278964,
  "labels": ["backend", "frontend", "pipeline:run-all-rspec", "type::bug"],
  "draft": false,
  "imported": false,
  "imported_from": "none",
  "work_in_progress": true,
  "milestone": null,
  "merge_when_pipeline_succeeds": false,
  "merge_status": "cannot_be_merged",
  "detailed_merge_status": "not_approved",
  "sha": "0b66948660fd02a0c48e86b6a5bb010a6ea7e2bc",
  "merge_commit_sha": null,
  "squash_commit_sha": null,
  "discussion_locked": null,
  "should_remove_source_branch": null,
  "force_remove_source_branch": true,
  "prepared_at": "2023-03-12T01:07:03.519Z",
  "reference": "!1234",
  "references": {
    "short": "!1234",
    "relative": "!1234",
    "full": "gitlab-org/gitlab!1234"
  },
  "web_url": "https://gitlab.com/gitlab-org/gitlab/-/merge_requests/1234",
  "time_stats": {
    "time_estimate": 0,
    "total_time_spent": 0,
    "human_time_estimate": null,
    "human_total_time_spent": null
  },
  "squash": false,
  "squash_on_merge": false,
  "task_completion_status": {
    "count": 1,
    "completed_count": 0
  },
  "has_conflicts": true,
  "blocking_discussions_resolved": false,
  "approvals_before_merge": null,
  "subscribed": false,
  "changes_count": "1",
  "latest_build_started_at": "2023-06-08T01:05:26.518Z",
  "latest_build_finished_at": "2023-06-08T06:34:39.490Z",
  "first_deployed_to_production_at": null,
  "pipeline": {
    "id": 893163981,
    "iid": 1676741,
    "project_id": 278964,
    "sha": "45bd87fd14fd0f6571e4d73f07c19bac4a600d6f",
    "ref": "refs/merge-requests/1234/merge",
    "status": "success",
    "source": "merge_request_event",
    "created_at": "2023-06-08T01:05:18.672Z",
    "updated_at": "2023-06-08T06:34:39.520Z",
    "web_url": "https://gitlab.com/gitlab-org/gitlab/-/pipelines/893163981"
  },
  "head_pipeline": {
    "id": 893163981,
    "iid": 1676741,
    "project_id": 278964,
    "sha": "45bd87fd14fd0f6571e4d73f07c19bac4a600d6f",
    "ref": "refs/merge-requests/1234/merge",
    "status": "success",
    "source": "merge_request_event",
    "created_at": "2023-06-08T01:05:18.672Z",
    "updated_at": "2023-06-08T06:34:39.520Z",
    "web_url": "https://gitlab.com/gitlab-org/gitlab/-/pipelines/893163981",
    "before_sha": "45bd87fd14fd0f6571e4d73f07c19bac4a600d6f",
    "tag": false,
    "yaml_errors": null,
    "user": {
      "id": 64248,
      "username": "stanhu",
      "name": "Stan Hu",
      "state": "active",
      "locked": false,
      "avatar_url": "https://gitlab.com/uploads/-/system/user/avatar/64248/stanhu.jpg",
      "web_url": "https://gitlab.com/stanhu"
    },
    "started_at": "2023-06-08T01:05:26.518Z",
    "finished_at": "2023-06-08T06:34:39.490Z",
    "committed_at": null,
    "duration": 5054,
    "queued_duration": 7,
    "coverage": "98.15",
    "detailed_status": {
      "icon": "status_warning",
      "text": "Warning",
      "label": "passed with warnings",
      "group": "success-with-warnings",
      "tooltip": "passed",
      "has_details": true,
      "details_path": "/gitlab-org/gitlab/-/pipelines/893163981",
      "illustration": null,
      "favicon": "/assets/ci_favicons/favicon_status_success-8451333011eee8ce9f2ab25dc487fe24a8758c694827a582f17f42b0a90446a2.png"
    }
  },
  "diff_refs": {
    "base_sha": "720e13b9e444f2b9d6827bc0e778cdc17d7cbd3b",
    "head_sha": "0b66948660fd02a0c48e86b6a5bb010a6ea7e2bc",
    "start_sha": "bfc608b6def2cd19c6a00a199e258bf87d0c2976"
  },
  "merge_error": null,
  "first_contribution": false,
  "user": {
    "can_merge": true
  }
}
